…
**DATA ANALYSIS**

``` r
stormsurge %>%
filter(Country == "US")
```

    ## # A tibble: 362 × 23
    ##     Year Storm N…¹ Storm…² Time    Reg Sub R…³ Country State Locat…⁴   Lat   Lon
    ##    <dbl> <chr>     <chr>   <chr> <dbl>   <dbl> <chr>   <chr> <chr>   <dbl> <dbl>
    ##  1  1880 "Unnamed" Aug 04… <NA>      5       1 US      TX    Near S…  26.2 -97.2
    ##  2  1886 "\xd0Ind… Aug 12… <NA>      5       1 US      TX    Indian…  28.5 -96.5
    ##  3  1886 "Unnamed" Oct 8-… <NA>      5       1 US      LA    Johnso…  29.8 -93.7
    ##  4  1886 "Unnamed" Jun 13… <NA>      5       1 US      TX    Sabine…  29.7 -94.0
    ##  5  1886 "Unnamed" Sep 16… <NA>      5       1 US      TX    Indian…  28.5 -96.5
    ##  6  1888 "Unnamed" Oct 8-… <NA>      5       1 US      FL    Cedar …  29.1 -83.0
    ##  7  1888 "Unnamed" Aug 14… <NA>      5       1 US      AL    Mobile   30.7 -88.0
    ##  8  1893 "\xd0Che… Sep 27… <NA>      5       1 US      LA    Chenie…  29.2 -90.1
    ##  9  1894 "Unnamed" Oct 1-… <NA>      5       1 US      AL    Fort M…  30.2 -88.0
    ## 10  1895 "Unnamed" Aug 22… <NA>      5       1 US      TX    Velasco  29.0 -95.4
    ## # … with 352 more rows, 12 more variables: Surge_m <chr>, Surge_ft <dbl>,
    ## #   Storm_Tide_m <dbl>, Storm_Tide_ft <dbl>, Storm_Tide_Waves_m <dbl>,
    ## #   Storm_Tide_Waves_ft <dbl>, Datum <chr>, `Type of Obs` <chr>,
    ## #   Tropical <chr>, Confidence <dbl>, `Surge ID` <dbl>, `Storm ID` <dbl>, and
    ## #   abbreviated variable names ¹​`Storm Name`, ²​`Storm Dates`, ³​`Sub Reg`,
    ## #   ⁴​Location
…
